\relax 
\@writefile{toc}{\contentsline {section}{\numberline {1}Algoritmo}{1}\protected@file@percent }
\@writefile{toc}{\contentsline {section}{\numberline {2}Dimostrazione di correttezza}{1}\protected@file@percent }
\@writefile{toc}{\contentsline {section}{\numberline {3}Calcolo della complessit\IeC {\`a}}{2}\protected@file@percent }
