\relax 
\@writefile{toc}{\contentsline {section}{\numberline {1}Teorema di Eulero}{1}\protected@file@percent }
\@writefile{toc}{\contentsline {section}{\numberline {2}Piccolo teorema di Fermat}{1}\protected@file@percent }
\@writefile{toc}{\contentsline {section}{\numberline {3}Principio fondamentale}{1}\protected@file@percent }
